{
	"title" : "app",
	"domaineName" : "communecter.org",
    "metaImg" : "/assets/img/bg_pixeltree2.jpg",
	"metaTitle" : "Réseau sociétal citoyen",
	"metaDesc" : "Communecter : Connecter à sa commune, inter connecter les communs, un réseau sociétal pour un citoyen connecté et acteur au centre de sa société.",
    "devises" : {
    			"all":"All",
    			"€" : "€",
    			 "Ğ1" : "Ğ1",
                 "£" : "£",
                 "$" : "$",
                 "CFP" : "CFP",
             	 "FC" : "FC"},
    "deviseDefault" : "€",
    "nbAdminModeration" : 3,
    "nbReportCoModeration" : 3,
    "appRendering":"vertical",
    "onepageKey" : [ "co", "net" ],
    "urlKey":{
    	"eco":"annonces",
    	"search":"search",
    	"live":"live",
    	"page":"page",
    	"agenda":"agenda",
    	"index":"index"
    },
	"pages" : {
		"#app.index": {
			"redirect": {
				"logged":"home",
				"unlogged":"welcome"
			}
		},
		"#welcome": {
			"inMenu" : false, 
			"useHeader" : true, 
			"useFilter" : false, 
			"open" : true, 
			"subdomain" : "welcome", 
			"subdomainName" : "About",
			"hash" : "#app.welcome",
			"icon" : "", 
			"mainTitle" : "Réseau sociétal <span class='text-red'>territorial</span>",
			"placeholderMainSearch" : "what are you looking for ?",
			"lblBtnCreate" : "Create something",
			"colorBtnCreate" : "green"
		},
		"#myhome": {
			"inMenu" : false, 
			"useHeader" : true, 
			"useFilter" : false, 
			"open" : true, 
			"subdomain" : "home", 
			"subdomainName" : "My home",
			"hash" : "#app.home",
			"icon" : "", 
			"mainTitle" : "My citizen network",
			"placeholderMainSearch" : "what are you looking for ?",
			"lblBtnCreate" : "Create something",
			"colorBtnCreate" : "green"
		},
		"#docs": {
			"inMenu" : false, 
			"useHeader" : false, 
			"open" : true, 
			"subdomain" : "docs", 
			"subdomainName" : "Documentation",
			"hash" : "#app.docs",
			"icon" : "", 
			"mainTitle" : "Réseau sociétal <span class='text-red'>territorial</span>",
			"placeholderMainSearch" : "search something ...",
			"lblBtnCreate" : "Create something",
			"colorBtnCreate" : "green"
		},
		"#search": {
			"inMenu" : true, 
			"useHeader" : true, 
			"useFilter" : true,
			"open" : true, 
			"subdomain" : "search", 
			"subdomainName" : "Search",
			"hash" : "#app.search",
			"icon" : "search", 
			"type" : "all",
			"mainTitle" : "<span class='text-red'>Territorial</span> search engine",
			"placeholderMainSearch" : "what are you looking for ?",
			"lblBtnCreate" : "Create a page",
			"colorBtnCreate" : "green",
			"initFilters":[
				"text",
				"tags",
				"locality",
				"types",
				"countType",
				"page",
				"initType",
				"count"
			]

		},
		"#web":
      	  	{ "inMenu" : true, 
              "useHeader" : true, 
              "useFilter" : false,
              "open" : false, 
              "subdomain" : "web", 
              "subdomainName" : "Web",
              "hash" : "#app.web",
              "icon" : "globe", 
              "mainTitle" : "Moteur de recherche",
              "placeholderMainSearch" : "Que recherchez-vous ?"},

      	"#referencement":
      	  	{	"inMenu" : false, 
              "useHeader" : true,
              "open" : true, 
              "subdomain" : "referencement", 
              "subdomainName" : "Referencement",
              "hash" : "#app.referencement",
              "icon" : "search", 
              "mainTitle" : "Référencer une page",
              "placeholderMainSearch" : ""},


		"#live": {
			"inMenu" : true, 
			"useHeader" : true, 
			"useFilter" : true,
			"open" : true, 
			"subdomain" : "live", 
			"subdomainName" : "Live",
			"hash":"#app.live",
			"type" : "news",
			"icon" : "newspaper-o", 
			"mainTitle" : "<span class='text-red'>CO</span>mmon live",
			"placeholderMainSearch" : "search in live ...",
			"initFilters":[
				"text",
				"tags",
				"locality"
			]
		},
		      
		"#agenda": {
			"inMenu" : true, 
			"useHeader" : true, 
			"useFilter" : true,
			"open" : true, 
			"subdomain" : "agenda", 
			"subdomainName" : "Events",
			"hash":"#app.agenda",
			"icon" : "calendar", 
			"type" : "events",
			"mainTitle" : "<span class='text-red'>C</span>Ommon agenda",
			"placeholderMainSearch" : "search an event ...",
			"lblBtnCreate" : "Create an event",
			"colorBtnCreate" : "orange",
			"initFilters":[
				"text",
				"tags",
				"locality",
				"searchSType"
			]
		},
      
		"#annonces": {
			"inMenu" : true, 
			"useHeader" : true, 
			"useFilter" : true,
			"open" : true, 
			"subdomain" : "annonces", 
			"subdomainName" : "Classifieds",
			"hash" : "#eco",
			"module":"eco",
			"icon" : "bullhorn", 
			"type" : "classifieds",
			"mainTitle" : "Classified ads",
			"placeholderMainSearch" : "search among classifieds ...",
			"lblBtnCreate" : "Create a classified ad",
			"colorBtnCreate" : "azure",
			"initFilters":[
				"text",
				"tags",
				"locality",
				"searchSType",
				"section",
				"subType",
				"devise",
				"priceMin",
				"priceMax"
			]
		},
		"#dda": {
			"inMenu" : true, 
			"useHeader" : true, 
			"useFilter" : {"scope":true, "filters":false},
			"open" : true, 
			"subdomain" : "dda", 
			"subdomainName" : "Agora Citoyenne",
			"hash" : "#dda",
			"module":"dda",
			"icon" : "gavel", 
			"type" : "proposals",
			"mainTitle" : "CO-démocratie",
			"placeholderMainSearch" : "search among proposals ...",
			"lblBtnCreate" : "Create a proposals ad",
			"colorBtnCreate" : "azure",
			"initFilters":[
				"text",
				"tags",
				"locality"
			]
		},
		"#place":
		    {"inMenu" : true, 
		    "useHeader" : true, 
		    "open" : false, 
		    "subdomain" : "place", 
		    "subdomainName" : "Lieux",
		    "hash" : "#app.search.type.place",
		    "icon" : "map-marker", 
		    "mainTitle" : "Moteur de Lieux <span class='text-red'>territoriales</span>",
		    "placeholderMainSearch" : "Rechercher un lieu ...",
		    "lblBtnCreate" : "Ajouter un lieu",
		    "colorBtnCreate" : "green"
		},
		"#chat": {
			"inMenu" : false, 
			"open" : true, 
			"subdomain" : "chat", 
			"subdomainName" : "Chat",
			"alias":"#chatAction",
			"login" : true,
			"notif" : "chatNotifs",
			"icon" : "comments", 
			"mainTitle" : "<span class='text-red'>CHAT with your communities</span>",
			"removeAfterLoad" : true, 
			"emptyContextData" : false
		},
		"#page": {
			"inMenu" : false, 
			"useHeader" : true,
			"useFilter" : false, 
			"open" : true, 
			"subdomain" : "page", 
			"subdomainName" : "page",
			"hash":"#app.page",
			"icon" : "", 
			"mainTitle" : "Réseau social citoyen",
			"placeholderMainSearch" : "what are you looking for ?"
		},
		"#info": {
			"inMenu" : false, 
			"useHeader" : true, 
			"useFilter" : false, 
			"open" : true, 
			"subdomain" : "apropos", 
			"subdomainName" : "Info",
			"hash":"#app.info",
			"icon" : "info-circle", 
			"mainTitle" : "Réseau social citoyen",
			"placeholderMainSearch" : "search on people communected ..."
		},

        "#power": {
            "inMenu" : false, 
            "useHeader" : true, 
            "open" : false, 
            "subdomain" : "power", 
            "subdomainName" : "Power",
            "hash":"#app.power",
            "icon" : "hand-rock-o", 
            "mainTitle" : "CO-démocratie",
            "placeholderMainSearch" : "search ...",
            "lblBtnCreate" : "Faire une proposition",
            "colorBtnCreate" : "azure"
        },


        "#city": {
            "inMenu" : false, 
            "useHeader" : false,
            "open" : true,  
            "subdomain" : "city", 
            "subdomainName" : "City",
            "hash":"#app.city",
            "icon" : "university", 
            "mainTitle" : "Communexion activée",
            "placeholderMainSearch" : "search ..."
        },

		"#rooms": {
			"inMenu" : false, 
			"useHeader" : false,
			"open" : true,  
			"subdomain" : "rooms", 
			"subdomainName" : "rooms",
			"hash":"#app.rooms",
			"icon" : "university", 
			"mainTitle" : "Communexion activée",
			"placeholderMainSearch" : "search ..."
		},

		"#survey": {
			"inMenu" : false, 
			"useHeader" : false,
			"useFilter" : false, 
			"open" : true,  
			"subdomain" : "city", 
			"subdomainName" : "City",
			"hash":"#app.survey",
			"icon" : "university", 
			"mainTitle" : "Communexion activée",
			"placeholderMainSearch" : "search ..."
		},

		"#admin": {
			"inMenu" : false, 
			"useHeader" : true, 
			"useFilter" : false, 
			"open" : false, 
			"subdomain" : "admin", 
			"subdomainName" : "admin",
			"hash":"#app.admin",
			"icon" : "university", 
			"mainTitle" : "Partie Admin",
			"placeholderMainSearch" : "Admin ..."
		},

        "#adminpublic": {
            "inMenu" : false, 
            "useHeader" : false, 
            "useFilter" : false, 
            "open" : false, 
            "subdomain" : "admin", 
            "subdomainName" : "admin",
            "hash":"#adminpublic",
            "icon" : "university", 
            "mainTitle" : "Partie Admin Public",
            "placeholderMainSearch" : "Admin Public ..."
        }
	},
	"languages":{
		"en" : "English",
		"fr" : "French",
		"de" : "German",
		"it" : "Italian"	
	},
	"header":{
		"banner":false,
		"menuTop":{
			"navLeft" : {
                "logo" : {
                	"url": "/assets/img/LOGOS/CO2/logo-min.png",
                	"height":30
                },
                "searchBar":{
	                "useFilter" : {
	                	"classes":{
	                		"container": "col-sm-4 col-md-4 col-lg-4",
	                		"input": "main-search-bar",
	                		"spanAddon":"main-search-bar-addon"
	                	},
	                	"ids":{
	                		"input": "main-search-bar",
	                		"spanAddon":"main-search-bar-addon"
	                	},
	                    "scopeFilter" : true,
	                    "showFilter" : true
	                },
	                "noUseFilter":{
		               	"classes":{
	                		"container": "col-sm-4 col-md-4 col-lg-4",
	                		"input": "",
	                		"spanAddon":"second-search-bar-addon"
	                	},
	                	"ids":{
	                		"input": "second-search-bar",
	                		"spanAddon":"second-search-bar-addon"
	                	},
	                    "dropdownResult":true,
	                    "dropdownApp":true
	                }
            	}
            },
            "navRight" : {
                "connected" : {
                	"map" : true,
                    "dropdownUser" : {
                        "languages" : {
                        	"label":"Languages",
                        	"icon" : "language",
                        	"liClass":"menu-lang dropdown-submenu dropdown-menu-left",
                        	"href":"javascript:;"
                        },
                        "statistics" : {
                        	"label":"Statistics",
                        	"icon" : "bar-chart",
                        	"liClass":"statistics-btn",
                        	"aClass":"lbh",
                        	"href":"#info.p.stats"
                        },
                        "documentation" : {
                        	"label":"Documentation",
                        	"icon" : "book",
                        	"liClass":"documentation-btn",
                        	"aClass":"lbh",
                        	"href":"#docs.page.welcome"
                        },
                        "donate" : {
                        	"label":"Recurring donation",
                        	"icon" : "heart",
                        	"liClass":"donation-btn",
                        	"href":"https://www.helloasso.com/associations/open-atlas/collectes/communecter/don",
                        	"blank":true
                        },
                        "admin" : {
                        	"icon" : "user-secret",
                        	"href":"#admin",
                        	"aClass":"lbh"
                        },
                        "settings" : {
                        	"label":"My parameters",
                        	"icon" : "cogs",
                        	"aClass":"lbh",
                        	"href":"#settings.page.myAccount"
                        },
                        "logout" : {
                        	"href":"/co2/person/logout",
                        	"aClass":"letter-red logout",
                        	"icon":"sign-out",
                        	"label":"Log Out"
                        }
                    },
                    "userProfil" : {
                    	"name":true,
                    	"img":true
                    },
                    "networkFloop" : true,
                    "notifications" : true,
                    "dda" : false,
                    "chat" : true,
                    "home" : true,
                    "app" : false
                },
                "disconnected" : {
                	"map" : true,
                    "languages" : true,
                    "login" : true
                }
            }
		}
	},
	"adminPanel": {
		"directory" :{
            "label":"Directory",
            "super":true,
            "class":"text-yellow",
            "id":"btn-directory",
            "href":"javascript:;",
            "icon":"user"
        },
        "reference":{
            "label":"Reference",
            "sourceKey":true,
            "init":["organizations", "events", "projects"],
            "class":"text-azure",
            "id":"btn-reference",
            "href":"javascript:;",
            "icon":"creative-commons"
        },
        "converter":{
            "label":"Converter",
           	"class":"text-green",
            "id": "btn-importdata",
            "href":"javascript:;",
            "icon":"upload"
        },
        "import":{
            "label":"IMPORT DATA",
           	"class":"letter-blue",
            "id": "btn-adddata",
            "href":"javascript:;",
            "icon":"plus"
        },
        "mails":{
            "label":"Mails simulator",
            "super":true,
            "class": "text-purple",
            "id":"btn-mailslist",
            "href":"javascript:;",
            "icon":"at"
        },
        "log":{
            "label":"LOG",
            "super":true,
            "class":"text-dark",
            "id": "btn-log",
            "href":"javascript:;",
            "icon":"list"
        },
        "moderation":{
            "label":"MODERATION",
            "class":"text-red",
            "id":"btn-moderate",
            "href":"javascript:;",
            "icon":"check"
        },
        "statistic":{
            "label":"Statitics",
            "class":"text-orange",
            "id":"btn-statistic",
            "href":"javascript:;",
            "icon":"bar-chart"
        },
        "mailerror" :{
            "label":"Mail error",
            "super":true,
            "class":"text-yellow",
            "id":"btn-mailerror",
            "href":"javascript:;",
            "icon":"envelope"
        }
	},
	"element":{
		"initView": "",
		"menuLeft":{
			"newspaper":{
				"label": "Newspaper",
				"icon":"fa-rss",
				"class":"ssmla btn-start-mystream",
				"visibleXs":true
			},
			"detail":{
				"label": "About",
				"icon":"fa-info-circle",
				"class":"ssmla",
				"id":"btn-start-detail"
			},
			"chart":{
				"label": "Our values",
				"icon":"fa-heartbeat",
				"class":"ssmla",
				"typeAllow":["projects", "organizations", "events", "places"]
			},
			"contact":{
				"label": "Contact",
				"icon":"fa-envelope",
				"class":"ssmla",
				"id":"btn-start-contacts",
				"dataAttr":{
					"toggle":"modal",
					"target":"#selectCreate"
				},
				"typeAllow":["projects", "organizations", "events", "places"]
			},
			"gallery":{
				"label": "Gallery",
				"icon":"fa-cloud",
				"class":"ssmla",
				"id":"btn-start-gallery",
				"separator":true
			},
			"community":{
				"label": "Community",
				"icon":"fa-users",
				"class":"ssmla capitalize load-data-directory load-data-community",
				"dataAttr":{
					"type-dir":"",
					"icon":"users"
				}
			},
			"collections":{
				"label": "Collections",
				"icon":"fa-star",
				"class":"ssmla load-data-directory",
				"separator":true,
				"dataAttr":{
					"type-dir":"collections",
					"icon":"star"
				},
				"typeAllow":["citoyens"]
			},
			"events":{
				"label":"Agenda",
				"icon":"fa-calendar",
				"class":"ssmla load-data-directory",
				"dataAttr":{
					"type-dir":"events",
					"icon":"calendar"
				}
			},
			"projects":{
				"label":"Projects",
				"icon":"fa-lightbulb-o",
				"class":"ssmla load-data-directory",
				"separator":true,
				"dataAttr":{
					"type-dir":"projects",
					"icon":"lightbulb-o"
				},
				"typeAllow":["projects","citoyens","organizations","places"]
			},
			"classifieds":{
				"label":"Classifieds",
				"icon":"fa-bullhorn",
				"class":"ssmla load-data-directory",
				"dataAttr":{
					"type-dir":"classifieds",
					"icon":"bullhorn"
				},
				"typeAllow":["projects","citoyens","organizations","places"]	
			},
			"ressources":{
				"label":"Ressources",
				"icon":"fa-cubes",
				"class":"ssmla load-data-directory",
				"dataAttr":{
					"type-dir":"ressources",
					"icon":"cubes"
				}	
			},
			"jobs":{
				"label":"Jobs",
				"icon":"fa-briefcase",
				"class":"ssmla load-data-directory",
				"dataAttr":{
					"type-dir":"jobs",
					"icon":"briefcase"
				},
				"typeAllow":["projects","citoyens","organizations"]
			},
			"pois":{
				"label":"Points of interest",
				"icon":"fa-map-marker",
				"class":"ssmla load-data-directory",
				"dataAttr":{
					"type-dir":"poi",
					"icon":"map-marker"
				},
				"separator":true
			},
			"surveys":{
				"label":"Surveys",
				"icon":"fa-gavel",
				"class":"ssmla load-data-directory",
				"dataAttr":{
					"type-dir":"surveys",
					"icon":"gavel"
				},
				"separator":true,
				"typeAllow":["projects","citoyens","organizations"]
			},
			"cv":{
				"label":"My experiences",
				"icon":"fa-clipboard",
				"class":"ssmla",
				"id":"btn-start-curiculum",
				"separator":true,
				"typeAllow":["citoyens"]
			}
		},
		"menuTop":{

		}
	}
}
